…
    ## Warning in eval(substitute(list(...)), `_data`, parent.frame()): NAs introduced
    ## by coercion

    ## Warning in min(x): no non-missing arguments to min; returning Inf

    ## Warning in max(x): no non-missing arguments to max; returning -Inf

    ## Warning in min(x): no non-missing arguments to min; returning Inf

    ## Warning in max(x): no non-missing arguments to max; returning -Inf

    ## `summarise()` has grouped output by 'system', 'species'. You can override using the `.groups` argument.

    ## # A tibble: 30 × 7
    ## # Groups:   system, species [15]
    ##    system   species  species_mean_weight species_weight_SD species_median_weight
    ##    <chr>    <chr>                  <dbl>             <dbl>                 <dbl>
    ##  1 Bertrand CO                      3.58            0.0990                  3.58
    ##  2 Bertrand CO                      3.58            0.0990                  3.58
    ##  3 Bertrand CRAYFISH              NaN              NA                      NA   
    ##  4 Bertrand CRAYFISH              NaN              NA                      NA   
    ##  5 Bertrand CUT                     3.67            0.862                   3.49
    ##  6 Bertrand CUT                     3.67            0.862                   3.49
    ##  7 Bertrand DAC                     2.89            1.47                    2.77
    ##  8 Bertrand DAC                     2.89            1.47                    2.77
    ##  9 Bertrand LAMP                    4.4             0.707                   4.4 
    ## 10 Bertrand LAMP                    4.4             0.707                   4.4 
    ## # … with 20 more rows, and 2 more variables: species_weight_variance <dbl>,
    ## #   species_weight_range <dbl>
…
``` r
fish_sampling
```

    ## # A tibble: 850 × 11
    ##    system riffle  pass species weight_g length_cm Date       shocking_effort_s
    ##    <chr>   <dbl> <dbl> <chr>   <chr>    <chr>     <chr>      <chr>            
    ##  1 Pepin      14     1 LAMP    6.8      15        08/19/2021 -                
    ##  2 Pepin      14     1 LAMP    4.8      15        08/19/2021 -                
    ##  3 Pepin      14     1 LAMP    1.05     10        08/19/2021 -                
    ##  4 Pepin      14     1 LAMP    0.9      7         08/19/2021 -                
    ##  5 Pepin      14     1 LAMP    0.9      6         08/19/2021 -                
    ##  6 Pepin      14     1 LAMP    2.25     10        08/19/2021 -                
    ##  7 Pepin      14     1 CUT     3.1      6.6       08/19/2021 -                
    ##  8 Pepin      14     1 CO      2.7      5.7       08/19/2021 -                
    ##  9 Pepin      14     1 CUT     6.4      7.2       08/19/2021 -                
    ## 10 Pepin      14     1 RBT     2.5      5.8       08/19/2021 -                
    ## # … with 840 more rows, and 3 more variables: sampled_riffle_length_m <chr>,
    ## #   Comments <chr>, ...11 <chr>
…
**Un-tidying my data:**

``` r
fish_sampling2_2A<-more_fish_sampling%>%
  select(system,riffle,species)%>%
  group_by(riffle)%>%
  mutate(row=row_number())%>%
  tidyr::pivot_wider(names_from = riffle,
                     values_from = species)%>%
  select(-row)
print(fish_sampling2_2A)
```

    ## # A tibble: 192 × 19
    ##    system `14`  `12`  `6`   `11`     `9.5` `9`   `10`  `3`   `7`   `5`   `5.75`
    ##    <chr>  <chr> <chr> <chr> <chr>    <chr> <chr> <chr> <chr> <chr> <chr> <chr> 
    ##  1 Pepin  LAMP  CUT   STK   STK      CUT   CUT   RBT   CUT   STK   STK   CUT   
    ##  2 Pepin  LAMP  CUT   CUT   CO       STK   CUT   CO    STK   CO    CO    CUT   
    ##  3 Pepin  LAMP  CUT   CO    CO       STK   CO    RBT   CO    RBT   CUT   CUT   
    ##  4 Pepin  LAMP  STK   RBT   STK      RBT   LAMP  CO    LAMP  CUT   STK   CO    
    ##  5 Pepin  LAMP  LAMP  STK   CUT      CUT   CO    CO    RBT   DAC   STK   CO    
    ##  6 Pepin  LAMP  LAMP  CO    STK      RBT   CUT   CO    LAMP  CO    DAC   CO    
    ##  7 Pepin  CUT   LAMP  STK   STK      CUT   STK   CO    STK   STK   CUT   CO    
    ##  8 Pepin  CO    LAMP  CO    LAMP     CO    LAMP  STK   RBT   CUT   STK   CO    
    ##  9 Pepin  CUT   LAMP  RBT   CRAYFISH CO    CO    RBT   STK   RBT   CO    LAMP  
    ## 10 Pepin  RBT   LAMP  CO    CUT      RBT   LAMP  LAMP  STK   CO    CO    LAMP  
    ## # … with 182 more rows, and 7 more variables: 5.9 <chr>, 8 <chr>, 4 <chr>,
    ## #   3.5 <chr>, 2 <chr>, 1 <chr>, 0.5 <chr>

**Tidying my data:**

``` r
fish_sampling2_2B<-fish_sampling2_2A%>%
  pivot_longer(cols = c(-system),
               names_to = "riffle",
               values_to = "species")
print(fish_sampling2_2B)
```

    ## # A tibble: 3,456 × 3
    ##    system riffle species
    ##    <chr>  <chr>  <chr>  
    ##  1 Pepin  14     LAMP   
    ##  2 Pepin  12     CUT    
    ##  3 Pepin  6      STK    
    ##  4 Pepin  11     STK    
    ##  5 Pepin  9.5    CUT    
    ##  6 Pepin  9      CUT    
    ##  7 Pepin  10     RBT    
    ##  8 Pepin  3      CUT    
    ##  9 Pepin  7      STK    
    ## 10 Pepin  5      STK    
    ## # … with 3,446 more rows
…
